<svg xmlns="http://www.w3.org/2000/svg" viewBox="0 0 24 24">
  <path style="fill:#b3bccc;fill-opacity:1;stroke:none"
        d="M 9 4 L 9 10 L 15 10 L 15 4 L 9 4 z M 4 14 L 4 20 L 10 20 L 10 14 L 4 14 z M 14 14 L 14 20 L 20 20 L 20 14 L 14 14 z"/>
</svg>
